-- Merging decision tree log ---
manifest
ADDED from /Users/Melanie/BYU Studies/CS240/Asteroid/SuperAsteroids/app/src/main/AndroidManifest.xml:2:1-50:12
	xmlns:android
		ADDED from /Users/Melanie/BYU Studies/CS240/Asteroid/SuperAsteroids/app/src/main/AndroidManifest.xml:2:11-69
	package
		ADDED from /Users/Melanie/BYU Studies/CS240/Asteroid/SuperAsteroids/app/src/main/AndroidManifest.xml:3:5-40
		INJECTED from /Users/Melanie/BYU Studies/CS240/Asteroid/SuperAsteroids/app/src/main/AndroidManifest.xml
		INJECTED from /Users/Melanie/BYU Studies/CS240/Asteroid/SuperAsteroids/app/src/main/AndroidManifest.xml
	android:versionName
		ADDED from /Users/Melanie/BYU Studies/CS240/Asteroid/SuperAsteroids/app/src/main/AndroidManifest.xml:5:5-30
		INJECTED from /Users/Melanie/BYU Studies/CS240/Asteroid/SuperAsteroids/app/src/main/AndroidManifest.xml
		INJECTED from /Users/Melanie/BYU Studies/CS240/Asteroid/SuperAsteroids/app/src/main/AndroidManifest.xml
	android:versionCode
		ADDED from /Users/Melanie/BYU Studies/CS240/Asteroid/SuperAsteroids/app/src/main/AndroidManifest.xml:4:5-28
		INJECTED from /Users/Melanie/BYU Studies/CS240/Asteroid/SuperAsteroids/app/src/main/AndroidManifest.xml
		INJECTED from /Users/Melanie/BYU Studies/CS240/Asteroid/SuperAsteroids/app/src/main/AndroidManifest.xml
uses-permission#android.permission.WRITE_EXTERNAL_STORAGE
ADDED from /Users/Melanie/BYU Studies/CS240/Asteroid/SuperAsteroids/app/src/main/AndroidManifest.xml:7:5-81
	android:name
		ADDED from /Users/Melanie/BYU Studies/CS240/Asteroid/SuperAsteroids/app/src/main/AndroidManifest.xml:7:22-78
uses-permission#android.permission.SET_DEBUG_APP
ADDED from /Users/Melanie/BYU Studies/CS240/Asteroid/SuperAsteroids/app/src/main/AndroidManifest.xml:8:5-88
	android:name
		ADDED from /Users/Melanie/BYU Studies/CS240/Asteroid/SuperAsteroids/app/src/main/AndroidManifest.xml:8:22-69
android:uses-permission#android.permission.READ_PHONE_STATE
ADDED from /Users/Melanie/BYU Studies/CS240/Asteroid/SuperAsteroids/app/src/main/AndroidManifest.xml:9:5-83
	android:name
		ADDED from /Users/Melanie/BYU Studies/CS240/Asteroid/SuperAsteroids/app/src/main/AndroidManifest.xml:9:30-80
application
ADDED from /Users/Melanie/BYU Studies/CS240/Asteroid/SuperAsteroids/app/src/main/AndroidManifest.xml:16:5-48:19
MERGED from [com.android.support:appcompat-v7:19.1.0] /Users/Melanie/BYU Studies/CS240/Asteroid/SuperAsteroids/app/build/intermediates/exploded-aar/com.android.support/appcompat-v7/19.1.0/AndroidManifest.xml:19:5-20
	android:label
		ADDED from /Users/Melanie/BYU Studies/CS240/Asteroid/SuperAsteroids/app/src/main/AndroidManifest.xml:19:9-41
	android:allowBackup
		ADDED from /Users/Melanie/BYU Studies/CS240/Asteroid/SuperAsteroids/app/src/main/AndroidManifest.xml:17:9-35
	android:icon
		ADDED from /Users/Melanie/BYU Studies/CS240/Asteroid/SuperAsteroids/app/src/main/AndroidManifest.xml:18:9-45
	android:theme
		ADDED from /Users/Melanie/BYU Studies/CS240/Asteroid/SuperAsteroids/app/src/main/AndroidManifest.xml:20:9-40
activity#edu.byu.cs.superasteroids.main_menu.MainActivity
ADDED from /Users/Melanie/BYU Studies/CS240/Asteroid/SuperAsteroids/app/src/main/AndroidManifest.xml:21:9-30:20
	android:screenOrientation
		ADDED from /Users/Melanie/BYU Studies/CS240/Asteroid/SuperAsteroids/app/src/main/AndroidManifest.xml:24:13-50
	android:label
		ADDED from /Users/Melanie/BYU Studies/CS240/Asteroid/SuperAsteroids/app/src/main/AndroidManifest.xml:23:13-45
	android:name
		ADDED from /Users/Melanie/BYU Studies/CS240/Asteroid/SuperAsteroids/app/src/main/AndroidManifest.xml:22:13-51
intent-filter#android.intent.action.MAIN+android.intent.category.LAUNCHER
ADDED from /Users/Melanie/BYU Studies/CS240/Asteroid/SuperAsteroids/app/src/main/AndroidManifest.xml:25:13-29:29
action#android.intent.action.MAIN
ADDED from /Users/Melanie/BYU Studies/CS240/Asteroid/SuperAsteroids/app/src/main/AndroidManifest.xml:26:17-69
	android:name
		ADDED from /Users/Melanie/BYU Studies/CS240/Asteroid/SuperAsteroids/app/src/main/AndroidManifest.xml:26:25-66
category#android.intent.category.LAUNCHER
ADDED from /Users/Melanie/BYU Studies/CS240/Asteroid/SuperAsteroids/app/src/main/AndroidManifest.xml:28:17-77
	android:name
		ADDED from /Users/Melanie/BYU Studies/CS240/Asteroid/SuperAsteroids/app/src/main/AndroidManifest.xml:28:27-74
activity#edu.byu.cs.superasteroids.game.GameActivity
ADDED from /Users/Melanie/BYU Studies/CS240/Asteroid/SuperAsteroids/app/src/main/AndroidManifest.xml:31:9-33:53
	android:screenOrientation
		ADDED from /Users/Melanie/BYU Studies/CS240/Asteroid/SuperAsteroids/app/src/main/AndroidManifest.xml:33:13-50
	android:name
		ADDED from /Users/Melanie/BYU Studies/CS240/Asteroid/SuperAsteroids/app/src/main/AndroidManifest.xml:32:13-46
activity#edu.byu.cs.superasteroids.ship_builder.ShipBuildingActivity
ADDED from /Users/Melanie/BYU Studies/CS240/Asteroid/SuperAsteroids/app/src/main/AndroidManifest.xml:34:9-38:20
	android:screenOrientation
		ADDED from /Users/Melanie/BYU Studies/CS240/Asteroid/SuperAsteroids/app/src/main/AndroidManifest.xml:37:13-50
	android:label
		ADDED from /Users/Melanie/BYU Studies/CS240/Asteroid/SuperAsteroids/app/src/main/AndroidManifest.xml:36:13-41
	android:name
		ADDED from /Users/Melanie/BYU Studies/CS240/Asteroid/SuperAsteroids/app/src/main/AndroidManifest.xml:35:13-62
activity#edu.byu.cs.superasteroids.importer.ImportActivity
ADDED from /Users/Melanie/BYU Studies/CS240/Asteroid/SuperAsteroids/app/src/main/AndroidManifest.xml:39:9-47:20
	android:screenOrientation
		ADDED from /Users/Melanie/BYU Studies/CS240/Asteroid/SuperAsteroids/app/src/main/AndroidManifest.xml:43:13-50
	android:label
		ADDED from /Users/Melanie/BYU Studies/CS240/Asteroid/SuperAsteroids/app/src/main/AndroidManifest.xml:41:13-58
	android:parentActivityName
		ADDED from /Users/Melanie/BYU Studies/CS240/Asteroid/SuperAsteroids/app/src/main/AndroidManifest.xml:42:13-65
	android:name
		ADDED from /Users/Melanie/BYU Studies/CS240/Asteroid/SuperAsteroids/app/src/main/AndroidManifest.xml:40:13-52
meta-data#android.support.PARENT_ACTIVITY
ADDED from /Users/Melanie/BYU Studies/CS240/Asteroid/SuperAsteroids/app/src/main/AndroidManifest.xml:44:13-46:84
	android:name
		ADDED from /Users/Melanie/BYU Studies/CS240/Asteroid/SuperAsteroids/app/src/main/AndroidManifest.xml:45:17-63
	android:value
		ADDED from /Users/Melanie/BYU Studies/CS240/Asteroid/SuperAsteroids/app/src/main/AndroidManifest.xml:46:17-81
uses-sdk
INJECTED from /Users/Melanie/BYU Studies/CS240/Asteroid/SuperAsteroids/app/src/main/AndroidManifest.xml reason: use-sdk injection requested
MERGED from [com.android.support:appcompat-v7:19.1.0] /Users/Melanie/BYU Studies/CS240/Asteroid/SuperAsteroids/app/build/intermediates/exploded-aar/com.android.support/appcompat-v7/19.1.0/AndroidManifest.xml:18:5-42
	android:targetSdkVersion
		INJECTED from /Users/Melanie/BYU Studies/CS240/Asteroid/SuperAsteroids/app/src/main/AndroidManifest.xml
		INJECTED from /Users/Melanie/BYU Studies/CS240/Asteroid/SuperAsteroids/app/src/main/AndroidManifest.xml
	android:minSdkVersion
		INJECTED from /Users/Melanie/BYU Studies/CS240/Asteroid/SuperAsteroids/app/src/main/AndroidManifest.xml
		INJECTED from /Users/Melanie/BYU Studies/CS240/Asteroid/SuperAsteroids/app/src/main/AndroidManifest.xml
